{
    "type": "lib",
    "source": {
        "page": "github",
        "user": "rxi",
        "project":"json.lua",
        "type": "github"
    },
    "files": [
        "json.lua",
        "README.md"
    ],
    "dependencies": []
}